6 Basic hypthothesis tests | R Notebook
…
df

## # A tibble: 12,070 x 8
##    id       age is_bullied num_hospitaliza~ grades n_timepoints too_kool_4_skool  time
##    <chr>  <dbl>      <dbl>            <dbl>  <dbl>        <int> <chr>            <int>
##  1 NDAR_~   117          2                0      1            3 nerds                1
##  2 NDAR_~   117          2                0      2            3 besties              1
##  3 NDAR_~   117          2                0      1            3 nerds                1
##  4 NDAR_~   117          2                0      1            3 nerds                1
##  5 NDAR_~   117          2                0      2            3 besties              1
##  6 NDAR_~   117          2                0      2            3 besties              1
##  7 NDAR_~   117          2                0     NA            3 <NA>                 1
##  8 NDAR_~   117          2                0      2            3 besties              1
##  9 NDAR_~   117          1                0      2            3 besties              1
## 10 NDAR_~   117          2                0      1            3 nerds                1
## # ... with 12,060 more rows

df <- df %>% 
  mutate(
    is_bullied = ifelse(
        test = is_bullied %in% c(1, 2),
        yes = is_bullied,
        no = NA) %>% 
      factor(levels = c(1, 2), labels = c('yes', 'no')))

df

## # A tibble: 12,070 x 8
##    id       age is_bullied num_hospitaliza~ grades n_timepoints too_kool_4_skool  time
##    <chr>  <dbl> <fct>                 <dbl>  <dbl>        <int> <chr>            <int>
##  1 NDAR_~   117 no                        0      1            3 nerds                1
##  2 NDAR_~   117 no                        0      2            3 besties              1
##  3 NDAR_~   117 no                        0      1            3 nerds                1
##  4 NDAR_~   117 no                        0      1            3 nerds                1
##  5 NDAR_~   117 no                        0      2            3 besties              1
##  6 NDAR_~   117 no                        0      2            3 besties              1
##  7 NDAR_~   117 no                        0     NA            3 <NA>                 1
##  8 NDAR_~   117 no                        0      2            3 besties              1
##  9 NDAR_~   117 yes                       0      2            3 besties              1
## 10 NDAR_~   117 no                        0      1            3 nerds                1
## # ... with 12,060 more rows
…
