4 Data Wrangling | An Organic R Textbook
…
names(my_data)

## [1] "subject_id" "condition"  "age"        "weighin"    "stage"      "totalcin"  
## [7] "totalcw2"   "totalcw4"   "totalcw6"

4.3.2 select()

This verb allows you to retain only a subset of variables. You can do this by naming them explicitly…

my_data %>% 
  select(subject_id, condition, age)

## # A tibble: 25 x 3
##    subject_id condition   age
##         <dbl>     <dbl> <dbl>
##  1          1         0    52
##  2          5         0    77
##  3          6         0    60
##  4          9         0    61
##  5         11         0    59
##  6         15         0    69
##  7         21         0    67
##  8         26         0    56
##  9         31         0    61
## 10         35         0    51
## # ... with 15 more rows

… or by using one of dplyr’s “select helper” functions, like starts_with() and ends_with().

my_data %>% 
  select(starts_with('total'))

## # A tibble: 25 x 4
##    totalcin totalcw2 totalcw4 totalcw6
##       <dbl>    <dbl>    <dbl>    <dbl>
##  1        6        6        6        7
##  2        9        6       10        9
##  3        7        9       17       19
##  4        6        7        9        3
##  5        6        7       16       13
##  6        6        6        6       11
##  7        6       11       11       10
##  8        6       11       15       15
##  9        6        9        6        8
## 10        6        4        8        7
## # ... with 15 more rows
…
