9 Intro to machine learning | R Notebook
…
library(tidymodels)

df_split <- initial_split(df, prop = .80)

df_split

## <Analysis/Assess/Total>
## <8282/2071/10353>

df_split %>%
  training()

## # A tibble: 8,282 x 90
## # Groups:   subjectkey [8,282]
##    collection_id abcd_lpksad01_id dataset_id subjectkey   src_subject_id interview_age
##            <dbl>            <dbl>      <dbl> <chr>        <chr>                  <dbl>
##  1          2573            30485      47218 NDAR_INV898~ NDAR_INV898CW~           143
##  2          2573            25452      47218 NDAR_INV2RE~ NDAR_INV2REKB~           125
##  3          2573            43922      47218 NDAR_INVNC2~ NDAR_INVNC2BC~           131
##  4          2573            34710      47218 NDAR_INVC2V~ NDAR_INVC2VA4~           135
##  5          2573            47128      47218 NDAR_INVRBP~ NDAR_INVRBPWC~           138
##  6          2573            40861      47218 NDAR_INVLZB~ NDAR_INVLZBR5~           124
##  7          2573            28787      47218 NDAR_INV6L0~ NDAR_INV6L032~           132
##  8          2573            48782      47218 NDAR_INVXUP~ NDAR_INVXUPME~           125
##  9          2573            42147      47218 NDAR_INVMWH~ NDAR_INVMWH0M~           143
## 10          2573            40063      47218 NDAR_INVK5M~ NDAR_INVK5MXZ~           125
## # ... with 8,272 more rows, and 84 more variables: interview_date <chr>, sex <chr>,
## #   eventname <chr>, kbi_l_p_select_language___1 <dbl>,
## #   kbi_p_c_live_full_time_l <dbl>, kbi_p_c_guard_l___1 <dbl>,
## #   kbi_p_c_guard_l___2 <dbl>, kbi_p_c_guard_l___3 <dbl>, kbi_p_c_guard_l___4 <dbl>,
## #   kbi_p_c_guard_l___5 <dbl>, kbi_p_c_guard_l___6 <dbl>, kbi_p_c_guard_l___7 <dbl>,
## #   kbi_p_c_guard_l___8 <dbl>, kbi_p_c_guard_l___9 <dbl>, kbi_p_c_guard_l___10 <dbl>,
## #   kbi_p_c_guard_l___11 <dbl>, kbi_p_c_guard_l___12 <dbl>, ...
…
df_training <- df_recipe %>% 
  juice()

df_testing <- df_recipe %>% 
  bake(testing(df_split)) %>% 
  filter(complete.cases(.))

df_testing

## # A tibble: 2,044 x 20
##    interview_age interview_date sex   eventname    kbi_l_p_select_l~ kbi_p_c_live_ful~
##            <dbl> <fct>          <fct> <fct>                    <dbl>             <dbl>
##  1           135 03/22/2018     M     1_year_foll~                 0                 0
##  2           137 11/17/2018     F     1_year_foll~                 1                 1
##  3           127 08/05/2018     M     1_year_foll~                 0                 1
##  4           137 05/20/2019     F     1_year_foll~                 0                 1
##  5           135 03/23/2018     F     1_year_foll~                 0                 1
##  6           127 10/29/2019     F     1_year_foll~                 0                 1
##  7           124 03/22/2019     M     1_year_foll~                 0                 0
##  8           144 08/17/2019     M     1_year_foll~                 0                 1
##  9           144 04/11/2019     M     1_year_foll~                 0                 1
## 10           119 01/04/2019     M     1_year_foll~                 0                 1
## # ... with 2,034 more rows, and 14 more variables: kbi_p_conflict_causes_l___2 <dbl>,
## #   kbi_p_c_school_setting_l <dbl>, kbi_p_grades_in_school_l <dbl>,
## #   kbi_p_c_spec_serv_l___4 <dbl>, kbi_p_c_spec_serv_l___7 <dbl>,
## #   kbi_p_c_spec_serv_l___8 <dbl>, kbi_p_c_spec_serv_l___9 <dbl>,
## #   kbi_p_c_det_susp_l <dbl>, kbi_p_c_best_friend_l <dbl>, kbi_p_c_bully_l <dbl>,
## #   kbi_p_c_gay_l <dbl>, kbi_p_c_mh_sa_l <dbl>, kbipcserviceschecklistl1 <dbl>,
## #   grade_drop <fct>
…
df_ranger %>%
  predict(df_testing) %>%
  bind_cols(df_testing)

## # A tibble: 2,044 x 21
##    .pred_class interview_age interview_date sex   eventname       kbi_l_p_select_lang~
##    <fct>               <dbl> <fct>          <fct> <fct>                          <dbl>
##  1 no                    135 03/22/2018     M     1_year_follow_~                    0
##  2 no                    137 11/17/2018     F     1_year_follow_~                    1
##  3 no                    127 08/05/2018     M     1_year_follow_~                    0
##  4 no                    137 05/20/2019     F     1_year_follow_~                    0
##  5 no                    135 03/23/2018     F     1_year_follow_~                    0
##  6 no                    127 10/29/2019     F     1_year_follow_~                    0
##  7 no                    124 03/22/2019     M     1_year_follow_~                    0
##  8 no                    144 08/17/2019     M     1_year_follow_~                    0
##  9 no                    144 04/11/2019     M     1_year_follow_~                    0
## 10 no                    119 01/04/2019     M     1_year_follow_~                    0
## # ... with 2,034 more rows, and 15 more variables: kbi_p_c_live_full_time_l <dbl>,
## #   kbi_p_conflict_causes_l___2 <dbl>, kbi_p_c_school_setting_l <dbl>,
## #   kbi_p_grades_in_school_l <dbl>, kbi_p_c_spec_serv_l___4 <dbl>,
## #   kbi_p_c_spec_serv_l___7 <dbl>, kbi_p_c_spec_serv_l___8 <dbl>,
## #   kbi_p_c_spec_serv_l___9 <dbl>, kbi_p_c_det_susp_l <dbl>,
## #   kbi_p_c_best_friend_l <dbl>, kbi_p_c_bully_l <dbl>, kbi_p_c_gay_l <dbl>,
## #   kbi_p_c_mh_sa_l <dbl>, kbipcserviceschecklistl1 <dbl>, grade_drop <fct>
…
