4 Logistic Regression | An Organic R Textbook
…
df

## # A tibble: 9,727 x 5
##    id                 age sex   grades num_hosp
##    <chr>            <dbl> <fct>  <dbl>    <dbl>
##  1 NDAR_INV9XU9GFCB     9 M          1        0
##  2 NDAR_INV029PWCFY     9 M          1        0
##  3 NDAR_INV06DE9Y0L     9 M          1        0
##  4 NDAR_INV0BL9EL2Y     9 F          1        0
##  5 NDAR_INV13BCLD41     9 M          2        0
##  6 NDAR_INV1APPZYY8     9 F          1        0
##  7 NDAR_INV2B9KMD5C     9 F          1        0
##  8 NDAR_INV2RYEWWRN     9 M          1        0
##  9 NDAR_INV3NT6ML17     9 F          1        0
## 10 NDAR_INV5FKNM21M     9 F          1        0
## # ... with 9,717 more rows
…
